Reshaping and Joining
…
---
# Pivoting longer

```r
iris %>%
  pivot_longer(Sepal.Length:Petal.Width, 
               names_to = "Flower.Part", 
               values_to = "Size")
```

```
## # A tibble: 600 x 3
##    Species Flower.Part   Size
##    <fct>   <chr>        <dbl>
##  1 setosa  Sepal.Length   5.1
##  2 setosa  Sepal.Width    3.5
##  3 setosa  Petal.Length   1.4
##  4 setosa  Petal.Width    0.2
##  5 setosa  Sepal.Length   4.9
##  6 setosa  Sepal.Width    3  
##  7 setosa  Petal.Length   1.4
##  8 setosa  Petal.Width    0.2
##  9 setosa  Sepal.Length   4.7
## 10 setosa  Sepal.Width    3.2
## # … with 590 more rows
```
…
---
# Pivoting wider

What about the reverse reshaping?

```
## Warning: Values in `Sepal.Width` are not uniquely identified; output will contain list-cols.
## * Use `values_fn = list(Sepal.Width = list)` to suppress this warning.
## * Use `values_fn = list(Sepal.Width = length)` to identify where the duplicates arise
## * Use `values_fn = list(Sepal.Width = summary_fun)` to summarise duplicates
```

```
## # A tibble: 145 x 6
##    Sepal.Length Petal.Length Petal.Width      setosa  versicolor   virginica
##           <dbl>        <dbl>       <dbl> <list<dbl>> <list<dbl>> <list<dbl>>
##  1          5.1          1.4         0.2         [1]         [0]         [0]
##  2          4.9          1.4         0.2         [1]         [0]         [0]
##  3          4.7          1.3         0.2         [1]         [0]         [0]
##  4          4.6          1.5         0.2         [1]         [0]         [0]
##  5          5            1.4         0.2         [2]         [0]         [0]
##  6          5.4          1.7         0.4         [1]         [0]         [0]
##  7          4.6          1.4         0.3         [1]         [0]         [0]
##  8          5            1.5         0.2         [1]         [0]         [0]
##  9          4.4          1.4         0.2         [1]         [0]         [0]
## 10          4.9          1.5         0.1         [1]         [0]         [0]
## # … with 135 more rows
```
---
# Pivoting wider

Need IDs to pivot wide!

```
## # A tibble: 150 x 4
##    Flower.ID setosa versicolor virginica
##        <int>  <dbl>      <dbl>     <dbl>
##  1         1    3.5         NA        NA
##  2         2    3           NA        NA
##  3         3    3.2         NA        NA
##  4         4    3.1         NA        NA
##  5         5    3.6         NA        NA
##  6         6    3.9         NA        NA
##  7         7    3.4         NA        NA
##  8         8    3.4         NA        NA
##  9         9    2.9         NA        NA
## 10        10    3.1         NA        NA
## # … with 140 more rows
```
…
