Bootstrapping
…
---
# Bootstrap it:

The `bootstrap` function takes many resamplings.

```r
my_boots <- skewed_data %>% bootstrap(100)
my_boots
```

```
## # A tibble: 100 x 2
##    strap      .id  
##    <list>     <chr>
##  1 <resample> 001  
##  2 <resample> 002  
##  3 <resample> 003  
##  4 <resample> 004  
##  5 <resample> 005  
##  6 <resample> 006  
##  7 <resample> 007  
##  8 <resample> 008  
##  9 <resample> 009  
## 10 <resample> 010  
## # … with 90 more rows
```
…
---
# Calculate statistic first

```r
my_boots <- my_boots %>%
  mutate(
    boot_means = map_dbl(strap, ~mean(data.frame(.x)$samples)),
    boot_medians = map_dbl(strap, ~median(data.frame(.x)$samples))
  )

my_boots 
```

```
## # A tibble: 100 x 4
##    strap      .id   boot_means boot_medians
##    <list>     <chr>      <dbl>        <dbl>
##  1 <resample> 001        0.944        0.706
##  2 <resample> 002        0.912        0.659
##  3 <resample> 003        1.04         0.742
##  4 <resample> 004        0.983        0.722
##  5 <resample> 005        0.990        0.736
##  6 <resample> 006        0.988        0.678
##  7 <resample> 007        1.03         0.728
##  8 <resample> 008        0.984        0.710
##  9 <resample> 009        0.928        0.661
## 10 <resample> 010        1.02         0.744
## # … with 90 more rows
```
…
