Text Analysis in R
…
# Sentiment analysis

A popular approach to text analysis to to analyze *sentiments*, or how positive/negative certain language is.

```r
library(tidytext)

positive <- get_sentiments("bing") %>%
  filter(sentiment == "positive")

positive
```

```
## # A tibble: 2,005 x 2
##    word        sentiment
##    <chr>       <chr>    
##  1 abound      positive 
##  2 abounds     positive 
##  3 abundance   positive 
##  4 abundant    positive 
##  5 accessable  positive 
##  6 accessible  positive 
##  7 acclaim     positive 
##  8 acclaimed   positive 
##  9 acclamation positive 
## 10 accolade    positive 
## # … with 1,995 more rows
```
…
